    1  ubuntu-drivers devices
    2  sudo apt install nvidia-driver-460-server
    3  sudo reboot
    4  ls
    5  cd Downloads
    6  ls
    7  mkdir CARLA
    8  cd Downloads
    9  bash CarlaUE4.sh
   10  cd CARLA
   11  bash CarlaUE4.sh
   12  lshw
   13  clr
   14  clscr
   15  lspci
   16  echo HelloWord
   17  d desktop
   18  cd desktop
   19  cd Desktop
   20  ls
   21  cd area de trabalho
   22  cd 'area de trabalho'
   23  clr
   24  ls
   25  cd Documentos
   26  ls
   27  touch HelloWord.sh
   28  ls
   29  bash HelloWorld.sh
   30  ls
   31  bash HelloWord.sh
   32  sudo apt install git
   33  git clone https://gitlab.com/felipepires725/primeiro-projeto.git
   34  node_modules
   35  cd node_modules
   36  node_modules
   37  /dist
   38  .env
   39  node_modules
   40  /dist
   41  .env
   42  git pull
   43  git status
   44  git clone https://gitlab.com/felipepires725/primeiro-projeto.git
   45  git add
   46  git checkout -b branch
   47  git clone https://gitlab.com/karine.pistili/flutter-destiny-challenge.git
   48  git pull
   49  git branch
   50  git clone https://gitlab.com/felipepires725/lg-bootcamp.git
   51  git status
   52  git init
   53  git add contributors.txt
   54  echo "Felipe Pires dos Santos" > contributors.txt
   55  ls
   56  git add contributors.txt
   57  git commit -m "Primeiro commit"
   58  git config --global user.email "felipepires725@gmail.com"
   59  git config --global user.name "Felipe Pires dos Santos"
   60  git commit -m "Primeiro commit"
   61  ls
   62  cd
   63  cd Documentos
   64  git pull 
   65  git pull ms1
   66  git init
   67  git pull
   68  git checkout -b atividades
   69  git pull
   70  git pull atividades
   71  git branch
   72  git push 
   73  git push atividades
   74  git pull ms1
   75  git branches
   76  git --help
   77  git branch
   78  git branch --list
   79  git branch -l
   80  git pull
   81  git pull https://gitlab.com/felipepires725/lg-bootcamp.git ms1
   82  git pull https://gitlab.com/felipepires725/lg-bootcamp.git
   83  ls]
   84  ls
   85  cd 
   86  bootCamp
   87  cd BootCamp
   88  ls
   89  cd Documentos
   90  cd BootCamp
   91  git pull https://gitlab.com/felipepires725/lg-bootcamp.git
   92  ls
   93  git pull V
   94  git init
   95  ls
   96  git pull https://gitlab.com/felipepires725/lg-bootcamp.git
   97  ls
   98  cd ms1
   99  ls
  100  bash shutdowm.sh
  101  bash shutdown.sh
  102  ls
  103  bash shutdown.sh
  104  cd Documentos/BootCamp
  105  ls
  106  cd ms1
  107  ls
  108  bash shutdown.sh
  109  cd Documentos/BootCamp/ms1
  110  bash shutdown.sh
  111  bash -x shutdown.sh
  112  shutdown.sh
  113  bash shutdown.sh
  114  no
  115  bash shutdown.sh
  116  bash shutdown,sh
  117  bash shutdown.sh
  118  cd Documentos/BootCamp/ms1
  119  bash shutdown.sh
  120  shutdown -c
  121  bash shutdown.sh
  122  cd Documentos/BootCamp/ms1
  123  bash shutdown.sh
  124  git push 
  125  git clone https://gitlab.com/felipepires725/lg-bootcamp.git
  126  git push
  127  ls
  128  git push shutdown.sh
  129  git branch
  130  git status
  131  git add shutdown.sh
  132  git commit
  133  git commit -m "Primeira atividade - script para desligar computador"
  134  git status
  135  git clone https://gitlab.com/felipepires725/lg-bootcamp.git
  136  git branch
  137  git branch atividades
  138  git branch
  139  git push
  140  git push .
  141  git push atividades
  142  git status
  143  git add shutdown.sh
  144  git add lg-bootcamp/
  145  git commit
  146  git commit -m "Primeira atividade - shutdown"
  147  cd Docuentos/BootCamp/ms1
  148  cd Documentos/BootCamp/ms1
  149  bash restart.sh
  150  cd Documentos/BootCamp/ms1
  151  bash restart.sh
  152  timeout --help
  153  bash restart.sh
  154  cd Documentos/BootCamp/ms1
  155  bash restart.sh
  156  shutdown -c
  157  bash restart.sh
  158  cd Documentos/BootCamp/ms1
  159  bash turn-screen.sh
  160  bash turn-screen.sh left
  161  bash turn-screen.sh right
  162  xrandr -o inverted
  163  xrandr -o normal
  164  bash turn-screen.sh right
  165  bash turn-screen.sh left
  166  xrandr -q
  167  setxkbmap us
  168  setxkbmap ptbr
  169  setxkbmap abnt2
  170  setxkbmap br
  171  setxkbmap -model abnt2 -layout br
  172  bash keyboard-language.sh
  173  bash keyboard-language.sh us
  174  bash keyboard-language.sh br
  175  bash keyboard-language.sh asajdd
  176  bash keyboard-language.sh br
  177  bash keyboard-language.sh s
  178  bash keyboard-language.sh us
  179  bash keyboard-language.sh br
  180  bash ms1-menu.sh
  181  cd Documentos/BootCamp/ms1
  182  bash ms1-menu.sh
  183  ls
  184  Documentos
  185  cd Documentos
  186  ls
  187  ping
  188  ping rota@rota2030
  189  ping rota2030
  190  tcpdump
  191  exit
  192  cd Documentos/BootCamp/ms1
  193  ls
  194  bash restart.sh
  195  cd Documentos/BootCamp/ms1
  196  bash ms1-menu.sh
  197  bash ms1-menu.sh6
  198  bash ms1-menu.sh
  199  bash shutdown.sh
  200  shutdown -c
  201  bash shutdown.sh
  202  bash ms1-menu.sh
  203  cd
  204  cd Documentos/BootCamp/ms2
  205  tcpdump --version
  206  sudo apt-get install openssh-server
  207  tcpdup
  208  tcpdump
  209  cd
  210  tcpdump
  211  cd Documentos/BootCamp/ms1
  212  bash ms1-menu.sh
  213  tcpdumpv-a
  214  tcpdump -D
  215  tcpdump
  216  sudo tcpdump
  217  history
  218  cd Documentos/BootCamp/ms2
  219  ls
  220  cd Documentos/BootCamp/ms2/t1
  221  cd Documentos/BootCamp/ms2/T1
  222  cd T1
  223  ls
  224  ssh
  225  ssh -local_tun
  226  ssh -w rota2030
  227  history > machine-a-history.txt
